…
    ## [1] a b c
    ## Levels: a b c

When we use base R to asign factor levels, R will do it alphabetically, which might not be what we need, `as_factor` on the other hand maintains the order we have.

Now, we can start playing with the factors

``` r
sl %>% 
  mutate(top_an = fct_lump(artist_factor, n = 10)) %>%  #lumping function to have one group of other
  count(top_an) %>%
  arrange(-n)
```

    ## # A tibble: 35 x 2
    ##             top_an     n
    ##             <fctr> <int>
    ##  1           Other  9918
    ##  2              U2     8
    ##  3 The Boo Radleys     8
    ##  4   Sonny Rollins     6
    ##  5    Jimi Hendrix     6
    ##  6       Pearl Jam     6
    ##  7    Floyd Cramer     6
    ##  8 Jerry Goldsmith     6
    ##  9  Phantom Planet     6
    ## 10       Meshuggah     5
    ## # ... with 25 more rows
…
